<svg width="36" height="27" viewBox="0 0 36 27" version="1.1" xmlns="http://www.w3.org/2000/svg" xmlns:xlink="http://www.w3.org/1999/xlink">
<title>Page 1</title>
<desc>Created using Figma</desc>
<g id="Canvas" transform="translate(-13312 -4676)">
<g id="Page 1">
<g id="Stroke 1">
<use xlink:href="#path0_stroke" transform="translate(13313 4677)" fill="#FFFFFF"/>
</g>
<g id="Stroke 3">
<use xlink:href="#path1_stroke" transform="translate(13313 4677.74)" fill="#FFFFFF"/>
</g>
<g id="Stroke 4">
<use xlink:href="#path2_stroke" transform="translate(13313 4689.5)" fill="#FFFFFF"/>
</g>
<g id="Stroke 5">
<use xlink:href="#path3_stroke" transform="translate(13334.3 4690.24)" fill="#FFFFFF"/>
</g>
</g>
</g>
<defs>
<path id="path0_stroke" d="M 0 25L -1 25C -1 25.5523 -0.552285 26 2.22045e-16 26L 0 25ZM 33.8235 25L 33.8235 26C 34.3758 26 34.8235 25.5523 34.8235 25L 33.8235 25ZM 33.8235 0L 34.8235 0C 34.8235 -0.552285 34.3758 -1 33.8235 -1L 33.8235 0ZM 0 0L 0 -1C -0.552285 -1 -1 -0.552285 -1 2.22045e-16L 0 0ZM 0 26L 33.8235 26L 33.8235 24L 0 24L 0 26ZM 34.8235 25L 34.8235 0L 32.8235 0L 32.8235 25L 34.8235 25ZM 33.8235 -1L 0 -1L 0 1L 33.8235 1L 33.8235 -1ZM -1 0L -1 25L 1 25L 1 0L -1 0Z"/>
<path id="path1_stroke" d="M 16.9118 16.1765L 16.2205 16.8991C 16.6072 17.2689 17.2164 17.2689 17.603 16.8991L 16.9118 16.1765ZM -0.691223 0.722642L 16.2205 16.8991L 17.603 15.4538L 0.691223 -0.722642L -0.691223 0.722642ZM 17.603 16.8991L 34.5148 0.722642L 33.1323 -0.722642L 16.2205 15.4538L 17.603 16.8991Z"/>
<path id="path2_stroke" d="M 11.8384 -0.749838L -0.661622 10.2796L 0.661622 11.7792L 13.1616 0.749838L 11.8384 -0.749838Z"/>
<path id="path3_stroke" d="M 13.1357 9.52219L 0.635707 -0.77193L -0.635707 0.77193L 11.8643 11.066L 13.1357 9.52219Z"/>
</defs>
</svg>
